R Workshop
…
surveys

## # A tibble: 34,786 x 13
##    record_id month   day  year plot_id species_id sex   hindfoot_length
##        <int> <int> <int> <int>   <int> <chr>      <chr>           <int>
##  1         1     7    16  1977       2 NL         M                  32
##  2        72     8    19  1977       2 NL         M                  31
##  3       224     9    13  1977       2 NL         <NA>               NA
##  4       266    10    16  1977       2 NL         <NA>               NA
##  5       349    11    12  1977       2 NL         <NA>               NA
##  6       363    11    12  1977       2 NL         <NA>               NA
##  7       435    12    10  1977       2 NL         <NA>               NA
##  8       506     1     8  1978       2 NL         <NA>               NA
##  9       588     2    18  1978       2 NL         M                  NA
## 10       661     3    11  1978       2 NL         <NA>               NA
## # ... with 34,776 more rows, and 5 more variables: weight <int>,
## #   genus <chr>, species <chr>, taxa <chr>, plot_type <chr>
…
surveys[1,6]

## # A tibble: 1 x 1
##   species_id
##   <chr>     
## 1 NL

# Defining only which element we want will return a data frame
surveys[1]

## # A tibble: 34,786 x 1
##    record_id
##        <int>
##  1         1
##  2        72
##  3       224
##  4       266
##  5       349
##  6       363
##  7       435
##  8       506
##  9       588
## 10       661
## # ... with 34,776 more rows

surveys[1:3, 7]

## # A tibble: 3 x 1
##   sex  
##   <chr>
## 1 M    
## 2 M    
## 3 <NA>

# Give us all the rows and columns except column 7
surveys[,-c(1:5)]

## # A tibble: 34,786 x 8
##    species_id sex   hindfoot_length weight genus   species  taxa  plot_type
##    <chr>      <chr>           <int>  <int> <chr>   <chr>    <chr> <chr>    
##  1 NL         M                  32     NA Neotoma albigula Rode Control  
##  2 NL         M                  31     NA Neotoma albigula Rode Control  
##  3 NL         <NA>               NA     NA Neotoma albigula Rode Control  
##  4 NL         <NA>               NA     NA Neotoma albigula Rode Control  
##  5 NL         <NA>               NA     NA Neotoma albigula Rode Control  
##  6 NL         <NA>               NA     NA Neotoma albigula Rode Control  
##  7 NL         <NA>               NA     NA Neotoma albigula Rode Control  
##  8 NL         <NA>               NA     NA Neotoma albigula Rode Control  
##  9 NL         M                  NA    218 Neotoma albigula Rode Control  
## 10 NL         <NA>               NA     NA Neotoma albigula Rode Control  
## # ... with 34,776 more rows
…
filter(): subsets of rows based on conditions

mutate(): create new columns, based on information from other columns

group_by(): creates groups based on categorical data in a column

summarize(): creates summary stats on grouped data

arrange(): sort results

count(): gives a count of discrete values

select(surveys, plot_id, species_id, weight)

## # A tibble: 34,786 x 3
##    plot_id species_id weight
##      <int> <chr>       <int>
##  1       2 NL             NA
##  2       2 NL             NA
##  3       2 NL             NA
##  4       2 NL             NA
##  5       2 NL             NA
##  6       2 NL             NA
##  7       2 NL             NA
##  8       2 NL             NA
##  9       2 NL            218
## 10       2 NL             NA
## # ... with 34,776 more rows

# Negative subsetting
select(surveys, -record_id)

## # A tibble: 34,786 x 12
##    month   day  year plot_id species_id sex   hindfoot_length weight genus
##    <int> <int> <int>   <int> <chr>      <chr>           <int>  <int> <chr>
##  1     7    16  1977       2 NL         M                  32     NA Neot
##  2     8    19  1977       2 NL         M                  31     NA Neot
##  3     9    13  1977       2 NL         <NA>               NA     NA Neot
##  4    10    16  1977       2 NL         <NA>               NA     NA Neot
##  5    11    12  1977       2 NL         <NA>               NA     NA Neot
##  6    11    12  1977       2 NL         <NA>               NA     NA Neot
##  7    12    10  1977       2 NL         <NA>               NA     NA Neot
##  8     1     8  1978       2 NL         <NA>               NA     NA Neot
##  9     2    18  1978       2 NL         M                  NA    218 Neot
## 10     3    11  1978       2 NL         <NA>               NA     NA Neot
## # ... with 34,776 more rows, and 3 more variables: species <chr>,
## #   taxa <chr>, plot_type <chr>

filter(surveys, year == 1995)

## Warning: package 'bindrcpp' was built under R version 3.4.4

## # A tibble: 1,180 x 13
##    record_id month   day  year plot_id species_id sex   hindfoot_length
##        <int> <int> <int> <int>   <int> <chr>      <chr>           <int>
##  1     22314     6     7  1995       2 NL         M                  34
##  2     22728     9    23  1995       2 NL         F                  32
##  3     22899    10    28  1995       2 NL         F                  32
##  4     23032    12     2  1995       2 NL         F                  33
##  5     22003     1    11  1995       2 DM         M                  37
##  6     22042     2     4  1995       2 DM         F                  36
##  7     22044     2     4  1995       2 DM         M                  37
##  8     22105     3     4  1995       2 DM         F                  37
##  9     22109     3     4  1995       2 DM         M                  37
## 10     22168     4     1  1995       2 DM         M                  36
## # ... with 1,170 more rows, and 5 more variables: weight <int>,
## #   genus <chr>, species <chr>, taxa <chr>, plot_type <chr>
…
surveys_sml <- surveys %>% 
  filter(weight < 5) %>% 
  select(species_id, sex, weight)

Challenge # 1

Using pipes, subset the surveys dataframe to include animals collected 1995 an retain only the columns year, sex and weight.

surveys %>% 
  mutate(weight_kg = weight / 1000,
         weight_kg2 = weight_kg * 2)

## # A tibble: 34,786 x 15
##    record_id month   day  year plot_id species_id sex   hindfoot_length
##        <int> <int> <int> <int>   <int> <chr>      <chr>           <int>
##  1         1     7    16  1977       2 NL         M                  32
##  2        72     8    19  1977       2 NL         M                  31
##  3       224     9    13  1977       2 NL         <NA>               NA
##  4       266    10    16  1977       2 NL         <NA>               NA
##  5       349    11    12  1977       2 NL         <NA>               NA
##  6       363    11    12  1977       2 NL         <NA>               NA
##  7       435    12    10  1977       2 NL         <NA>               NA
##  8       506     1     8  1978       2 NL         <NA>               NA
##  9       588     2    18  1978       2 NL         M                  NA
## 10       661     3    11  1978       2 NL         <NA>               NA
## # ... with 34,776 more rows, and 7 more variables: weight <int>,
## #   genus <chr>, species <chr>, taxa <chr>, plot_type <chr>,
## #   weight_kg <dbl>, weight_kg2 <dbl>
…
## # A tibble: 3 x 2
##   sex   mean_weight
##   <chr>       <dbl>
## 1 F            42.2
## 2 M            43.0
## 3 <NA>         64.7

# arrange by defaualt is done in ascending order
surveys %>% 
  group_by(sex, species_id) %>% 
  summarize(mean_weight = mean(weight, na.rm = TRUE),
            min_weight = min(weight, na.rm = TRUE)) %>% 
  arrange(min_weight)

## # A tibble: 64 x 4
## # Groups:   sex [3]
##    sex   species_id mean_weight min_weight
##    <chr> <chr>            <dbl>      <dbl>
##  1 F     PF                7.97          4
##  2 F     RM               11.1           4
##  3 M     PF                7.89          4
##  4 M     PP               17.2           4
##  5 M     RM               10.1           4
##  6 <NA>  PF                6             4
##  7 F     OT               24.8           5
##  8 F     PP               17.2           5
##  9 F     BA                9.16          6
## 10 M     BA                7.36          6
## # ... with 54 more rows
…
Challenge # 3

How many animals were caught in each plot_type surveyed.

Use group_by and summarize to find the mean, min, and max of hindfoot length (using species_id) for each species. Also, add the number of observations (hint: see ?n)

surveys %>% 
  group_by(species_id) %>% 
  summarize(mean_length = mean(hindfoot_length, na.rm = TRUE),
            n())

## # A tibble: 25 x 3
##    species_id mean_length `n()`
##    <chr>            <dbl> <int>
##  1 BA                13      45
##  2 DM                36.0 10262
##  3 DO                35.6  2904
##  4 DS                50.0  2344
##  5 NL                32.3  1152
##  6 OL                20.5   970
##  7 OT                20.3  2160
##  8 OX                20.4     6
##  9 PB                26.1  2810
## 10 PE                20.2  1260
## # ... with 15 more rows

What was the heaviest animal measured in each year? Return the columns year, genus, species_id, and weight.

surveys %>% 
  group_by(year, genus, species_id) %>% 
  summarize(max_weight = max(weight, na.rm = TRUE)) %>% 
  arrange(desc(max_weight)) 

## # A tibble: 336 x 4
## # Groups:   year, genus [201]
##     year genus   species_id max_weight
##    <int> <chr>   <chr>           <dbl>
##  1  2001 Neotoma NL                280
##  2  1987 Neotoma NL                278
##  3  1989 Neotoma NL                275
##  4  1979 Neotoma NL                274
##  5  2000 Neotoma NL                265
##  6  1981 Neotoma NL                264
##  7  1984 Neotoma NL                259
##  8  1983 Neotoma NL                256
##  9  1982 Neotoma NL                252
## 10  1988 Neotoma NL                248
## # ... with 326 more rows
…
durations

Joining Data

Dat we have:

chla

tidy_gsi

fish_d09

left_join(fish_d09, tidy_gsi, by = 'hakai_id') 

## # A tibble: 832 x 28
##    hakai_id jsp_survey_id seine_id date       species site_id fork_length
##    <chr>    <chr>         <chr>    <date>     <fct>   <chr>         <int>
##  1 U4802    DE112         DE112N1  2015-05-20 SO      D09             106
##  2 U4776    DE112         DE112N1  2015-05-20 SO      D09             106
##  3 U4728    DE112         DE112N1  2015-05-20 SO      D09              97
##  4 U4801    DE112         DE112N1  2015-05-20 SO      D09             102
##  5 U4777    DE112         DE112N1  2015-05-20 SO      D09             102
##  6 U4779    DE112         DE112N1  2015-05-20 SO      D09              97
##  7 U4778    DE112         DE112N1  2015-05-20 SO      D09              96
##  8 U4800    DE112         DE112N1  2015-05-20 SO      D09              95
##  9 U4780    DE112         DE112N1  2015-05-20 SO      D09             128
## 10 U350     DE112         DE112N1  2015-05-20 SO      D09             101
## # ... with 822 more rows, and 21 more variables: weight <dbl>, k <dbl>,
## #   year <dbl>, month <dbl>, week <dbl>, yday <dbl>, stock_1 <chr>,
## #   region_1 <int>, prob_1 <dbl>, stock_2 <chr>, region_2 <int>,
## #   prob_2 <dbl>, stock_3 <chr>, region_3 <int>, prob_3 <dbl>,
## #   stock_4 <chr>, region_4 <int>, prob_4 <dbl>, stock_5 <chr>,
## #   region_5 <int>, prob_5 <dbl>

right_join(fish_d09, tidy_gsi) 

## Joining, by = "hakai_id"

## # A tibble: 1,187 x 28
##    hakai_id jsp_survey_id seine_id date       species site_id fork_length
##    <chr>    <chr>         <chr>    <date>     <fct>   <chr>         <int>
##  1 U10      <NA>          <NA>     NA         <NA>    <NA>             NA
##  2 U16      <NA>          <NA>     NA         <NA>    <NA>             NA
##  3 U17      <NA>          <NA>     NA         <NA>    <NA>             NA
##  4 U21      <NA>          <NA>     NA         <NA>    <NA>             NA
##  5 U25      <NA>          <NA>     NA         <NA>    <NA>             NA
##  6 U31      <NA>          <NA>     NA         <NA>    <NA>             NA
##  7 U35      <NA>          <NA>     NA         <NA>    <NA>             NA
##  8 U42      <NA>          <NA>     NA         <NA>    <NA>             NA
##  9 U43      <NA>          <NA>     NA         <NA>    <NA>             NA
## 10 U7       <NA>          <NA>     NA         <NA>    <NA>             NA
## # ... with 1,177 more rows, and 21 more variables: weight <dbl>, k <dbl>,
## #   year <dbl>, month <dbl>, week <dbl>, yday <dbl>, stock_1 <chr>,
## #   region_1 <int>, prob_1 <dbl>, stock_2 <chr>, region_2 <int>,
## #   prob_2 <dbl>, stock_3 <chr>, region_3 <int>, prob_3 <dbl>,
## #   stock_4 <chr>, region_4 <int>, prob_4 <dbl>, stock_5 <chr>,
## #   region_5 <int>, prob_5 <dbl>

so_gsi <- inner_join(fish_d09, tidy_gsi, by = 'hakai_id') 

anti_join(fish_d09, tidy_gsi)

## Joining, by = "hakai_id"

## # A tibble: 685 x 13
##    hakai_id jsp_survey_id seine_id date       species site_id fork_length
##    <chr>    <chr>         <chr>    <date>     <fct>   <chr>         <int>
##  1 U4802    DE112         DE112N1  2015-05-20 SO      D09             106
##  2 U4776    DE112         DE112N1  2015-05-20 SO      D09             106
##  3 U4728    DE112         DE112N1  2015-05-20 SO      D09              97
##  4 U4801    DE112         DE112N1  2015-05-20 SO      D09             102
##  5 U4777    DE112         DE112N1  2015-05-20 SO      D09             102
##  6 U4779    DE112         DE112N1  2015-05-20 SO      D09              97
##  7 U4778    DE112         DE112N1  2015-05-20 SO      D09              96
##  8 U4800    DE112         DE112N1  2015-05-20 SO      D09              95
##  9 U4780    DE112         DE112N1  2015-05-20 SO      D09             128
## 10 U348     DE112         DE112N1  2015-05-20 SO      D09              94
## # ... with 675 more rows, and 6 more variables: weight <dbl>, k <dbl>,
## #   year <dbl>, month <dbl>, week <dbl>, yday <dbl>
…
